{
    "count": 4151,
    "next": "http://127.0.0.1:8000/v2/week_day/?page=2",
    "previous": null,
    "results": [
        {
            "id": 160,
            "date": "2020-01-01",
            "values_ak": 0,
            "values_ap": 0,
            "values_at": 0,
            "values_pk": 0,
            "values_pp": 0,
            "values_pt": 0,
            "values_jk": 0,
            "values_jp": 0,
            "values_jt": 0,
            "location": 27,
            "week": 839
        },
        {
            "id": 159,
            "date": "2020-01-01",
            "values_ak": 0,
            "values_ap": 0,
            "values_at": 0,
            "values_pk": 53,
            "values_pp": 36,
            "values_pt": 89,
            "values_jk": 0,
            "values_jp": 0,
            "values_jt": 0,
            "location": 26,
            "week": 838
        },
        {
            "id": 158,
            "date": "2020-01-01",
            "values_ak": 0,
            "values_ap": 0,
            "values_at": 0,
            "values_pk": 175,
            "values_pp": 165,
            "values_pt": 340,
            "values_jk": 2136,
            "values_jp": 2285,
            "values_jt": 4421,
            "location": 25,
            "week": 837
        },
        {
            "id": 157,
            "date": "2020-01-01",
            "values_ak": 2157,
            "values_ap": 2938,
            "values_at": 5095,
            "values_pk": 151,
            "values_pp": 75,
            "values_pt": 226,
            "values_jk": 3204,
            "values_jp": 3642,
            "values_jt": 6846,
            "location": 24,
            "week": 836
        },
        {
            "id": 161,
            "date": "2020-01-01",
            "values_ak": 0,
            "values_ap": 0,
            "values_at": 0,
            "values_pk": 0,
            "values_pp": 0,
            "values_pt": 0,
            "values_jk": 0,
            "values_jp": 0,
            "values_jt": 0,
            "location": 28,
            "week": 840
        },
        {
            "id": 155,
            "date": "2020-01-01",
            "values_ak": 0,
            "values_ap": 0,
            "values_at": 0,
            "values_pk": 126,
            "values_pp": 164,
            "values_pt": 290,
            "values_jk": 949,
            "values_jp": 1052,
            "values_jt": 2001,
            "location": 22,
            "week": 834
        },
        {
            "id": 156,
            "date": "2020-01-01",
            "values_ak": 0,
            "values_ap": 0,
            "values_at": 0,
            "values_pk": 159,
            "values_pp": 130,
            "values_pt": 289,
            "values_jk": 2093,
            "values_jp": 2293,
            "values_jt": 4386,
            "location": 23,
            "week": 835
        },
        {
            "id": 166,
            "date": "2020-01-02",
            "values_ak": 0,
            "values_ap": 0,
            "values_at": 0,
            "values_pk": 91,
            "values_pp": 91,
            "values_pt": 182,
            "values_jk": 0,
            "values_jp": 0,
            "values_jt": 0,
            "location": 26,
            "week": 838
        },
        {
            "id": 167,
            "date": "2020-01-02",
            "values_ak": 0,
            "values_ap": 0,
            "values_at": 0,
            "values_pk": 0,
            "values_pp": 0,
            "values_pt": 0,
            "values_jk": 0,
            "values_jp": 0,
            "values_jt": 0,
            "location": 27,
            "week": 839
        },
        {
            "id": 162,
            "date": "2020-01-02",
            "values_ak": 0,
            "values_ap": 0,
            "values_at": 0,
            "values_pk": 370,
            "values_pp": 381,
            "values_pt": 751,
            "values_jk": 886,
            "values_jp": 802,
            "values_jt": 1688,
            "location": 22,
            "week": 834
        },
        {
            "id": 165,
            "date": "2020-01-02",
            "values_ak": 0,
            "values_ap": 0,
            "values_at": 0,
            "values_pk": 585,
            "values_pp": 521,
            "values_pt": 1106,
            "values_jk": 2458,
            "values_jp": 1863,
            "values_jt": 4321,
            "location": 25,
            "week": 837
        },
        {
            "id": 164,
            "date": "2020-01-02",
            "values_ak": 2362,
            "values_ap": 3160,
            "values_at": 5522,
            "values_pk": 295,
            "values_pp": 105,
            "values_pt": 400,
            "values_jk": 2573,
            "values_jp": 1883,
            "values_jt": 4456,
            "location": 24,
            "week": 836
        },
        {
            "id": 163,
            "date": "2020-01-02",
            "values_ak": 0,
            "values_ap": 0,
            "values_at": 0,
            "values_pk": 526,
            "values_pp": 461,
            "values_pt": 987,
            "values_jk": 2306,
            "values_jp": 2163,
            "values_jt": 4469,
            "location": 23,
            "week": 835
        },
        {
            "id": 168,
            "date": "2020-01-02",
            "values_ak": 0,
            "values_ap": 0,
            "values_at": 0,
            "values_pk": 0,
            "values_pp": 0,
            "values_pt": 0,
            "values_jk": 0,
            "values_jp": 0,
            "values_jt": 0,
            "location": 28,
            "week": 840
        },
        {
            "id": 174,
            "date": "2020-01-03",
            "values_ak": 0,
            "values_ap": 0,
            "values_at": 0,
            "values_pk": 0,
            "values_pp": 0,
            "values_pt": 0,
            "values_jk": 0,
            "values_jp": 0,
            "values_jt": 0,
            "location": 27,
            "week": 839
        },
        {
            "id": 173,
            "date": "2020-01-03",
            "values_ak": 0,
            "values_ap": 0,
            "values_at": 0,
            "values_pk": 58,
            "values_pp": 65,
            "values_pt": 123,
            "values_jk": 0,
            "values_jp": 0,
            "values_jt": 0,
            "location": 26,
            "week": 838
        },
        {
            "id": 172,
            "date": "2020-01-03",
            "values_ak": 0,
            "values_ap": 0,
            "values_at": 0,
            "values_pk": 487,
            "values_pp": 473,
            "values_pt": 960,
            "values_jk": 2164,
            "values_jp": 1721,
            "values_jt": 3885,
            "location": 25,
            "week": 837
        },
        {
            "id": 171,
            "date": "2020-01-03",
            "values_ak": 2742,
            "values_ap": 3342,
            "values_at": 6084,
            "values_pk": 274,
            "values_pp": 80,
            "values_pt": 354,
            "values_jk": 2419,
            "values_jp": 1722,
            "values_jt": 4141,
            "location": 24,
            "week": 836
        },
        {
            "id": 170,
            "date": "2020-01-03",
            "values_ak": 0,
            "values_ap": 0,
            "values_at": 0,
            "values_pk": 440,
            "values_pp": 459,
            "values_pt": 899,
            "values_jk": 1735,
            "values_jp": 1549,
            "values_jt": 3284,
            "location": 23,
            "week": 835
        },
        {
            "id": 169,
            "date": "2020-01-03",
            "values_ak": 0,
            "values_ap": 0,
            "values_at": 0,
            "values_pk": 309,
            "values_pp": 343,
            "values_pt": 652,
            "values_jk": 646,
            "values_jp": 597,
            "values_jt": 1243,
            "location": 22,
            "week": 834
        }
    ]
}