{
    "count": 133,
    "next": "http://127.0.0.1:8000/v2/month_data/?page=2",
    "previous": null,
    "results": [
        {
            "id": 1083,
            "location": 22,
            "month_info": {
                "id": 1235,
                "month_number": 1,
                "location": 22,
                "year": 120
            },
            "value_ak": 0,
            "value_ap": 0,
            "value_at": 0,
            "value_pk": 9131,
            "value_pp": 10076,
            "value_pt": 19207,
            "value_jk": 16807,
            "value_jp": 16389,
            "value_jt": 33196
        },
        {
            "id": 1084,
            "location": 23,
            "month_info": {
                "id": 1236,
                "month_number": 1,
                "location": 23,
                "year": 121
            },
            "value_ak": 0,
            "value_ap": 0,
            "value_at": 0,
            "value_pk": 12350,
            "value_pp": 11735,
            "value_pt": 24085,
            "value_jk": 49059,
            "value_jp": 46016,
            "value_jt": 95075
        },
        {
            "id": 1085,
            "location": 24,
            "month_info": {
                "id": 1237,
                "month_number": 1,
                "location": 24,
                "year": 122
            },
            "value_ak": 51061,
            "value_ap": 62915,
            "value_at": 113976,
            "value_pk": 8972,
            "value_pp": 2699,
            "value_pt": 11671,
            "value_jk": 66085,
            "value_jp": 47403,
            "value_jt": 113488
        },
        {
            "id": 1086,
            "location": 25,
            "month_info": {
                "id": 1238,
                "month_number": 1,
                "location": 25,
                "year": 123
            },
            "value_ak": 0,
            "value_ap": 0,
            "value_at": 0,
            "value_pk": 16922,
            "value_pp": 14605,
            "value_pt": 31527,
            "value_jk": 55838,
            "value_jp": 45826,
            "value_jt": 101664
        },
        {
            "id": 1087,
            "location": 26,
            "month_info": {
                "id": 1239,
                "month_number": 1,
                "location": 26,
                "year": 124
            },
            "value_ak": 0,
            "value_ap": 0,
            "value_at": 0,
            "value_pk": 1920,
            "value_pp": 1811,
            "value_pt": 3731,
            "value_jk": 0,
            "value_jp": 0,
            "value_jt": 0
        },
        {
            "id": 1088,
            "location": 27,
            "month_info": {
                "id": 1240,
                "month_number": 1,
                "location": 27,
                "year": 125
            },
            "value_ak": 0,
            "value_ap": 0,
            "value_at": 0,
            "value_pk": 0,
            "value_pp": 0,
            "value_pt": 0,
            "value_jk": 0,
            "value_jp": 0,
            "value_jt": 0
        },
        {
            "id": 1089,
            "location": 28,
            "month_info": {
                "id": 1241,
                "month_number": 1,
                "location": 28,
                "year": 126
            },
            "value_ak": 0,
            "value_ap": 0,
            "value_at": 0,
            "value_pk": 0,
            "value_pp": 0,
            "value_pt": 0,
            "value_jk": 0,
            "value_jp": 0,
            "value_jt": 0
        },
        {
            "id": 1090,
            "location": 22,
            "month_info": {
                "id": 1242,
                "month_number": 2,
                "location": 22,
                "year": 120
            },
            "value_ak": 0,
            "value_ap": 0,
            "value_at": 0,
            "value_pk": 10695,
            "value_pp": 11029,
            "value_pt": 21724,
            "value_jk": 17293,
            "value_jp": 15488,
            "value_jt": 32781
        },
        {
            "id": 1091,
            "location": 23,
            "month_info": {
                "id": 1243,
                "month_number": 2,
                "location": 23,
                "year": 121
            },
            "value_ak": 0,
            "value_ap": 0,
            "value_at": 0,
            "value_pk": 13489,
            "value_pp": 12856,
            "value_pt": 26345,
            "value_jk": 50723,
            "value_jp": 46325,
            "value_jt": 97048
        },
        {
            "id": 1092,
            "location": 24,
            "month_info": {
                "id": 1244,
                "month_number": 2,
                "location": 24,
                "year": 122
            },
            "value_ak": 56323,
            "value_ap": 66381,
            "value_at": 122704,
            "value_pk": 10188,
            "value_pp": 2975,
            "value_pt": 13163,
            "value_jk": 74202,
            "value_jp": 53346,
            "value_jt": 127548
        },
        {
            "id": 1093,
            "location": 25,
            "month_info": {
                "id": 1245,
                "month_number": 2,
                "location": 25,
                "year": 123
            },
            "value_ak": 0,
            "value_ap": 0,
            "value_at": 0,
            "value_pk": 19083,
            "value_pp": 16695,
            "value_pt": 35778,
            "value_jk": 62005,
            "value_jp": 50884,
            "value_jt": 112889
        },
        {
            "id": 1094,
            "location": 26,
            "month_info": {
                "id": 1246,
                "month_number": 2,
                "location": 26,
                "year": 124
            },
            "value_ak": 0,
            "value_ap": 0,
            "value_at": 0,
            "value_pk": 1757,
            "value_pp": 1672,
            "value_pt": 3429,
            "value_jk": 0,
            "value_jp": 0,
            "value_jt": 0
        },
        {
            "id": 1095,
            "location": 27,
            "month_info": {
                "id": 1247,
                "month_number": 2,
                "location": 27,
                "year": 125
            },
            "value_ak": 0,
            "value_ap": 0,
            "value_at": 0,
            "value_pk": 0,
            "value_pp": 0,
            "value_pt": 0,
            "value_jk": 0,
            "value_jp": 0,
            "value_jt": 0
        },
        {
            "id": 1096,
            "location": 28,
            "month_info": {
                "id": 1248,
                "month_number": 2,
                "location": 28,
                "year": 126
            },
            "value_ak": 0,
            "value_ap": 0,
            "value_at": 0,
            "value_pk": 0,
            "value_pp": 0,
            "value_pt": 0,
            "value_jk": 0,
            "value_jp": 0,
            "value_jt": 0
        },
        {
            "id": 1097,
            "location": 22,
            "month_info": {
                "id": 1249,
                "month_number": 3,
                "location": 22,
                "year": 120
            },
            "value_ak": 0,
            "value_ap": 0,
            "value_at": 0,
            "value_pk": 14325,
            "value_pp": 14011,
            "value_pt": 28336,
            "value_jk": 22316,
            "value_jp": 19528,
            "value_jt": 41844
        },
        {
            "id": 1098,
            "location": 23,
            "month_info": {
                "id": 1250,
                "month_number": 3,
                "location": 23,
                "year": 121
            },
            "value_ak": 0,
            "value_ap": 0,
            "value_at": 0,
            "value_pk": 17181,
            "value_pp": 16713,
            "value_pt": 33894,
            "value_jk": 54491,
            "value_jp": 50442,
            "value_jt": 104933
        },
        {
            "id": 1099,
            "location": 24,
            "month_info": {
                "id": 1251,
                "month_number": 3,
                "location": 24,
                "year": 122
            },
            "value_ak": 69419,
            "value_ap": 78648,
            "value_at": 148067,
            "value_pk": 11549,
            "value_pp": 3726,
            "value_pt": 15275,
            "value_jk": 76168,
            "value_jp": 53066,
            "value_jt": 129234
        },
        {
            "id": 1100,
            "location": 25,
            "month_info": {
                "id": 1252,
                "month_number": 3,
                "location": 25,
                "year": 123
            },
            "value_ak": 0,
            "value_ap": 0,
            "value_at": 0,
            "value_pk": 22230,
            "value_pp": 19031,
            "value_pt": 41261,
            "value_jk": 60784,
            "value_jp": 51576,
            "value_jt": 112360
        },
        {
            "id": 1101,
            "location": 26,
            "month_info": {
                "id": 1253,
                "month_number": 3,
                "location": 26,
                "year": 124
            },
            "value_ak": 0,
            "value_ap": 0,
            "value_at": 0,
            "value_pk": 3165,
            "value_pp": 2782,
            "value_pt": 5947,
            "value_jk": 0,
            "value_jp": 0,
            "value_jt": 0
        },
        {
            "id": 1102,
            "location": 27,
            "month_info": {
                "id": 1254,
                "month_number": 3,
                "location": 27,
                "year": 125
            },
            "value_ak": 0,
            "value_ap": 0,
            "value_at": 0,
            "value_pk": 0,
            "value_pp": 0,
            "value_pt": 0,
            "value_jk": 0,
            "value_jp": 0,
            "value_jt": 0
        }
    ]
}